id_opentheso.double(),nom.string(),date.double(),date_fourchette_debut.double(),date_fourchette_fin.double(),note_date.string()
3223,Théâtre des Ambassadeurs,1909,,,publication de la photographie
3241,Opéra khédivial du Caire,1869,,,inauguration
3241,Théâtre de l'Opéra,1870,,,publication de la photographie
3243,Hôtel Continental,1869,,,
3243,Continental Hotel,1897,,,publication de la photographie
3243,Hôtel continental,1868,,,publication de la photographie
3243,Hôtel continental,1870,,,publication de la photographie
3243,Hôtel continental,1870,,,publication de la photographie
3243,Hôtel continental / place de l'opéra,1912,,,publication de la photographie
3247,Collège de La Salle,1905,,,publication de la photographie
3247,Collège de La Salle Daher,1899,,,publication de la photographie
3251,pont de Qasr al-Nil,1872,,,construction
3251,pont de Qasr al-Nil,1930,,,publication de la photographie
3251,Pont de Kasr El Nil,1924,,,publication de la photographie
3251,Pont de Qasr al-Nil,1870,,,publication de la photographie
3251,Pont de Qasr al-Nil,1905,,,publication de la photographie
3251,Pont de Qasr al-Nil,1945,,,publication de la photographie
3253,Palace Hôtel,,1908,1910,construction
3253,Palace Hotel (Héliopolis),1907,,,publication de la photographie
3261,El Chicha (???? ??????),1919,,,publication de la photographie
3263,Rue Fuad Ier,1924,,,publication de la photographie
3269,Grands magasins Cicurel rue Fouad,1924,,,publication de la photographie
3271,Al-Chark,1931,,,publication de la photographie
3275,Palais Tigrane,1930,,,publication de la photographie
3275,Palais Tigrane,1938,,,publication de la photographie
3277,palais Mosseri,,1930,1935,Musée d'Art Moderne
3277,Musée d'art moderne,1935,,,publication de la photographie
3277,Palais Mosseri,1930,,,publication de la photographie
3279,Cinema Metropole,1933,,,publication de la photographie
3281,Université du Caire,1909,,,publication de la photographie
3281,Université du Caire,1910,,,publication de la photographie
3281,Université égyptienne,1908,,,publication de la photographie
3281,Université égyptienne,1912,,,publication de la photographie
3281,Université égyptienne,1945,,,publication de la photographie
3283,Banque Nationale d'Égypte,1901,,,construction
3457,cathédrale Notre-Dame d'Héliopolis,,1910,1913,
3457,cathédrale Notre Dame d'Heliopolis,1929,,,publication de la photographie
3477,palais al-Manyal,1929,,,inauguration
3481,Qasr al-'Ali,1904,,,publication de la photographie
3487,Palais Soliman Pacha el Fransawi,1931,,,publication de la photographie
3489,villa Delort de Gléon,1881,,,
3489,Villa Delort de Gléon,1870,,,publication de la photographie
3509,Groppi,1925,,,construction
3511,Place Isma'ilia,1930,,,publication de la photographie
3517,Rue Emad al-Din,1930,,,publication de la photographie
3519,Rue Emad El Dine / place Suarès,1932,,,publication de la photographie
3521,Gare de Bab-el-Louk (Helouan Railway),1913,,,publication de la photographie
3522,Tiring,,1911,1913,construction
3523,Place Ataba-El-Khadra,1903,,,publication de la photographie
3524,palais d'Ismail Pacha al-Mufatish,1875,,,
3529,Résidence de Nubar Pacha YMCA,1928,,,publication de la photographie
3531,marché de Bâb el-Lûk,1912,,,construction
3566,mosquée Azbak al-Yusufi,1494,,,construction
3566,mosquée Azbak al-Yusufi,1494,,,construction
3574,Rue de la Poste,1891,,,publication de la photographie
3576,Hôpital français du Caire,1910,,,publication de la photographie
3577,Rue Kasr El Nil,1911,,,publication de la photographie
3577,Rue Qasr al-Nil,1870,,,publication de la photographie
3578,Bon Marché de Paris,1924,,,publication de la photographie
3578,Bon marché de Paris,1925,,,publication de la photographie
3578,Immeuble du Bon marché de Paris,1933,,,publication de la photographie
3579,Hôtel Bristol,1894,,,
3579,Bristol Hotel,1924,,,publication de la photographie
3580,gare Ramsès,1856,,,construction
3580,gare Ramsès,,1892,1893,reconstruction
3580,gare centrale,1906,,,publication de la photographie
3580,gare centrale,1924,,,publication de la photographie
3580,Gare,1903,,,publication de la photographie
3580,Gare,1945,,,publication de la photographie
3580,Gare centrale,1906,,,publication de la photographie
3580,Gare Ramsès,1920,,,publication de la photographie
3585,Hôtel Le Bosphore,1907,,,publication de la photographie
3587,Séminaire des missions africaines au Caire,1900,,,publication de la photographie
3588,Anzac Hostel,1916,,,publication de la photographie
3592,Ezbekeieh,1802,,,publication de la photographie
3592,Ezbekeieh,1870,,,publication de la photographie
3600,Shepheard's,1897,,,publication de la photographie
3600,Shepheard's,1945,,,publication de la photographie
3600,Shepheard's Hotel,1929,,,publication de la photographie
3600,Shepheard's Hotel,1929,,,publication de la photographie
3600,Shepheard's Hotel,1939,,,publication de la photographie
3607,immeuble Aziz Bahri,1939,,,
3607,immeuble Aziz Bahri (rue Qasr al-Nil Assurances Allianz et Stuttgarter Hotel pension Stalney House The Mortgage company of Egypt  limited,1939,,,
3609,mosquée al-Azhar,,970,972,construction
3609,Mosquée El Azhar,1914,,,publication de la photographie
3610,madrasa al-sultan Hasan,,1356,1363,construction
3610,Mosquée Sultan Hasan,1910,,,publication de la photographie
3612,bab al-'Azab,1754,,,construction
3614,mosquée Muhammad 'Ali pacha,,1830,1848,construction
3614,Mosquée Muhammad Ali Pacha,1960,,,publication de la photographie
3625,mosquée ibn Tulun,,876,879,construction
3628,église al-Mu'allaqa,735,,,
3628,église al-Mu'allaqa,1910,,,
3630,aqueduc,1312,,,construction
3630,aqueduc,,1506,1508,
3748,bab al-Futuh,1087,,,construction
3749,Entrée des archives et qubba de Mohammed Agha,1930,,,publication de la photographie
3750,Archives nationales d'Egypte,1828,,,fondation
3750,Archives,1930,,,publication de la photographie
3751,Rue el-Daftarkhâna el-Misriyya (+ bâtiment archives),1930,,,publication de la photographie
3751,Rue el-Daftarkhâna el-Misriyya et citadelle,1930,,,publication de la photographie
3752,Rue bâb el-gedid et archives,1930,,,publication de la photographie
3752,Rue bâb el-gedid/ archives et tekkye Refâ'i,1930,,,publication de la photographie
3754,Institut national de musique arabe,,1921,1929,
3776,Qubba de Mohammed Agha,1930,,,publication de la photographie
3778,Port de Boulac et  mosquée Abu al-'Ila,1939,,,publication de la photographie
3781,Musée de Giseh,1899,,,publication de la photographie
3781,Musée de Gizeh,1891,,,publication de la photographie
3781,Musée de Gizeh,1891,,,publication de la photographie
3783,Norddeutscher Lloyd,1913,,,publication de la photographie
3796,Collège des Frères  (collège de la sainte famille ?) église de la Theotokos,1910,,,publication de la photographie
3796,Collège des Frères (identification fautive ? collège de la sainte famille d'Heliopolis),1929,,,publication de la photographie